#define dirso_width 16
#define dirso_height 16
static char dirso_bits[] = {
   0xff, 0xff, 0x21, 0x84, 0x21, 0x84, 0x21, 0x84, 0x21, 0x84, 0xff, 0xff,
   0x21, 0x84, 0x21, 0x84, 0x21, 0x84, 0x21, 0x84, 0xff, 0xff, 0x3f, 0x84,
   0x3f, 0x84, 0x3f, 0x84, 0x3f, 0x84, 0xff, 0xff};
