<svg contentScriptType="text/ecmascript" xmlns:xlink="http://www.w3.org/1999/xlink" zoomAndPan="magnify" contentStyleType="text/css" preserveAspectRatio="xMidYMid meet" xmlns="http://www.w3.org/2000/svg" version="1.0"><g id="CMP__State_Invalid"><g id="_C1166B_SYMBOLS_C1166B_SYMBOLHIGHLIGHT130_1_INVALID_SVG" transform="translate(-100.0 -100.0)scale(1.0 1.0)"><rect x="0.0" fill="red" width="200.0" height="130.0" y="35.0" opacity="0"/><g id="C1166B_SymbolHighlight130_1_Invalid" transform="matrix(1.000000, 0, 0, 1.000000, 100.000000, 100.000000)">

  
  <rect x="-100px" y="-65px" fill="#FFFFFF" width="200px" fill-rule="evenodd" class="AnRectangle" height="130px"/>

</g></g></g></svg>