<svg contentScriptType="text/ecmascript" xmlns:xlink="http://www.w3.org/1999/xlink" zoomAndPan="magnify" contentStyleType="text/css" preserveAspectRatio="xMidYMid meet" xmlns="http://www.w3.org/2000/svg" version="1.0"><g id="DCB__Symbol_Open"><g id="_C1166B_SYMBOLS_ECT_C1166B_ECT_DCB__2_OPEN_SVG" transform="translate(-99.53638 -99.57486)scale(1.0 1.0)"><rect x="59.0" fill="red" width="82.0" height="82.0" y="59.0" opacity="0"/><g id="ECT/C1166B_ECT_DCB__2_Open" transform="matrix(1.000000, 0, 0, 1.000000, 100.000000, 100.000000)">

  
  <polyline fill="none" stroke-width="2px" class="AnPolyline" points="0,40 -7,33 -40,0 -32,-7 0,-40 10,-30 40,0 38,3 0,40 " stroke="#0000FF"/>

</g></g></g></svg>