<svg contentScriptType="text/ecmascript" xmlns:xlink="http://www.w3.org/1999/xlink" zoomAndPan="magnify" contentStyleType="text/css" preserveAspectRatio="xMidYMid meet" xmlns="http://www.w3.org/2000/svg" version="1.0"><g id="DRA_SEPC_Alarm"><g id="_C1166B_SYMBOLS_DRA_C1166B_DRA_SEPC_3_ALARM_SVG" transform="translate(-99.0 -99.0)scale(1.0 1.0)"><rect x="45.0" fill="red" width="110.0" height="110.0" y="45.0" opacity="0"/><g id="DRA/C1166B_DRA_SEPC_3_Alarm" transform="matrix(1.000000, 0, 0, 1.000000, 100.000000, 100.000000)">

  
  <circle fill="none" r="55.00px" cx="0px" class="AnCircle" cy="0px" stroke="#FF0000" stroke-width="2px"/>

  
  <polygon fill="#FF0000" class="AnPolygon" fill-rule="evenodd" points="-26,-48 -26,48 54,1 -26,-48 "/>

</g></g></g></svg>