<svg contentScriptType="text/ecmascript" xmlns:xlink="http://www.w3.org/1999/xlink" zoomAndPan="magnify" contentStyleType="text/css" preserveAspectRatio="xMidYMid meet" xmlns="http://www.w3.org/2000/svg" version="1.0"><g id="DSS_TACK_D_State_Invalid"><g id="_C1166B_SYMBOLS_DSS_C1166B_DSS_TACK_D_HIGHLIGHT_1_INVALID_SVG" transform="translate(-100.0 -100.0)scale(1.0 1.0)"><rect x="39.0" fill="red" width="122.0" height="42.0" y="79.0" opacity="0"/><g id="DSS/C1166B_DSS_TACK_D_Highlight_1_Invalid" transform="matrix(1.000000, 0, 0, 1.000000, 100.000000, 100.000000)">

  
  <rect x="-60px" y="-20px" fill="#FFFFFF" width="121px" fill-rule="evenodd" class="AnRectangle" height="41px"/>

</g></g></g></svg>