<svg contentScriptType="text/ecmascript" xmlns:xlink="http://www.w3.org/1999/xlink" zoomAndPan="magnify" contentStyleType="text/css" preserveAspectRatio="xMidYMid meet" xmlns="http://www.w3.org/2000/svg" version="1.0"><g id="DSS_DIRN_Appear"><g id="_C1166B_SYMBOLS_DSS_C1166B_DSS_DIRN_APPEAR_SVG" transform="translate(-100.0 -100.0)scale(1.0 1.0)"><rect x="18.0" fill="red" width="164.0" height="40.0" y="80.0" opacity="0"/><g id="DSS/C1166B_DSS_DIRN_Appear" transform="matrix(1.000000, 0, 0, 1.000000, 100.000000, 100.000000)">

  
  <rect x="-82px" y="-20px" fill="#0000FF" width="164px" fill-rule="evenodd" class="AnRectangle" height="1px"/>

  
  <rect x="-82px" y="-20px" fill="#0000FF" width="1px" fill-rule="evenodd" class="AnRectangle" height="40px"/>

  
  <rect x="-82px" y="19px" fill="#0000FF" width="164px" fill-rule="evenodd" class="AnRectangle" height="1px"/>

  
  <rect x="81px" y="-20px" fill="#0000FF" width="1px" fill-rule="evenodd" class="AnRectangle" height="40px"/>

</g></g></g></svg>