<svg contentScriptType="text/ecmascript" xmlns:xlink="http://www.w3.org/1999/xlink" zoomAndPan="magnify" contentStyleType="text/css" preserveAspectRatio="xMidYMid meet" xmlns="http://www.w3.org/2000/svg" version="1.0"><g id="ECS_SPFS_L_State_MO"><g id="_C1166B_SYMBOLS_C1166B_SYMBOLHIGHLIGHT_3_MO_SVG" transform="translate(-55.0 -55.0)scale(0.55 0.55)"><rect x="0.0" fill="red" width="200.0" height="200.0" y="0.0" opacity="0"/><g id="C1166B_SymbolHighlight_3_MO" transform="matrix(1.000000, 0, 0, 1.000000, 100.000000, 100.000000)">

  
  <polygon fill="#0000FF" class="AnPolygon" fill-rule="evenodd" points="-100,-100 -91,-100 -91,99 -100,99 "/>

  
  <polygon fill="#0000FF" class="AnPolygon" fill-rule="evenodd" points="-100,-100 99,-100 99,-91 -100,-91 "/>

  
  <polygon fill="#0000FF" class="AnPolygon" fill-rule="evenodd" points="99,99 99,-100 90,-100 90,99 "/>

  
  <polygon fill="#0000FF" class="AnPolygon" fill-rule="evenodd" points="99,99 -100,99 -100,90 99,90 "/>

</g></g></g></svg>