<svg contentScriptType="text/ecmascript" xmlns:xlink="http://www.w3.org/1999/xlink" zoomAndPan="magnify" contentStyleType="text/css" preserveAspectRatio="xMidYMid meet" xmlns="http://www.w3.org/2000/svg" version="1.0"><g id="ECS_PEUS_Stop_Blink"><g id="_C1166B_SYMBOLS_ECS_C1166B_ECS_PEUS_2_STOP_SVG" transform="translate(-99.0 -99.0)scale(1.0 1.0)"><rect x="35.0" fill="red" width="130.0" height="50.0" y="75.0" opacity="0"/><g id="ECS/C1166B_ECS_PEUS_2_Stop" transform="matrix(1.000000, 0, 0, 1.000000, 100.000000, 100.000000)">

  
  <rect x="-43px" y="-25px" fill="#FF0000" width="86px" fill-rule="evenodd" class="AnRectangle" height="50px"/>

  
  <rect x="-65px" y="-25px" fill="none" width="130px" class="AnRectangle" height="50px" stroke="#FF0000" stroke-width="2px"/>

</g><animate dur="1.0" attributeName="visibility" from="hidden" repeatCount="indefinite" to="visible"/></g></g></svg>