<svg contentScriptType="text/ecmascript" xmlns:xlink="http://www.w3.org/1999/xlink" zoomAndPan="magnify" contentStyleType="text/css" preserveAspectRatio="xMidYMid meet" xmlns="http://www.w3.org/2000/svg" version="1.0"><g id="ECS_IEAF_L_On"><g id="_C1166B_SYMBOLS_ECS_C1166B_ECS_IEAF_1_ON_SVG" transform="translate(-100.0 -100.0)scale(1.0 1.0)rotate(180.0 100.0 100.0)"><rect x="55.0" fill="red" width="90.0" height="80.0" y="60.0" opacity="0"/><g id="ECS/C1166B_ECS_IEAF_1_On" transform="matrix(1.000000, 0, 0, 1.000000, 100.000000, 100.000000)">

  
  <line fill="none" x1="-43px" x2="-43px" y1="-39px" y2="40px" class="AnLine" stroke="#218A21" stroke-width="2px"/>

  
  <line fill="none" x1="19px" x2="19px" y1="-39px" y2="40px" class="AnLine" stroke="#218A21" stroke-width="2px"/>

  
  <line fill="none" x1="-43px" x2="19px" y1="-30px" y2="-30px" class="AnLine" stroke="#218A21" stroke-width="2px"/>

  
  <line fill="none" x1="-43px" x2="19px" y1="32px" y2="32px" class="AnLine" stroke="#218A21" stroke-width="2px"/>

  
  <polygon fill="#218A21" class="AnPolygon" fill-rule="evenodd" points="-33,-27 9,-27 -33,28 9,28 -33,-27 "/>

  
  <polygon fill="#218A21" class="AnPolygon" fill-rule="evenodd" points="22,-29 22,32 44,1 22,-29 "/>

</g></g></g></svg>