<svg contentScriptType="text/ecmascript" xmlns:xlink="http://www.w3.org/1999/xlink" zoomAndPan="magnify" contentStyleType="text/css" preserveAspectRatio="xMidYMid meet" xmlns="http://www.w3.org/2000/svg" version="1.0"><g id="ECS_MSFS_V_Opened"><g id="_C1166B_SYMBOLS_ECS_C1166B_ECS_MSFS_2_OPENED_SVG" transform="translate(-100.0 -100.0)scale(1.0 1.0)"><rect x="72.0" fill="red" width="56.0" height="100.0" y="50.0" opacity="0"/><g id="ECS/C1166B_ECS_MSFS_2_Opened" transform="matrix(1.000000, 0, 0, 1.000000, 100.000000, 100.000000)">

  
  <rect x="-28px" y="-50px" fill="#00FFFF" width="56px" fill-rule="evenodd" class="AnRectangle" height="100px"/>

</g></g></g></svg>