<svg contentScriptType="text/ecmascript" xmlns:xlink="http://www.w3.org/1999/xlink" zoomAndPan="magnify" contentStyleType="text/css" preserveAspectRatio="xMidYMid meet" xmlns="http://www.w3.org/2000/svg" version="1.0"><g id="ECS_EX3S_L_Decor_Local"><g id="_C1166B_SYMBOLS_TAG_C1166B_ECT_TAG_LOCAL_SVG" transform="translate(-166.0 -38.0)scale(1.0 1.0)"><rect x="80.0" fill="red" width="40.0" height="44.0" y="78.0" opacity="0"/><g id="Tag/C1166B_ECT_TAG_Local" transform="matrix(1.000000, 0, 0, 1.000000, 100.000000, 100.000000)">

  
  <rect x="-20px" y="-20px" fill="#989898" width="40px" fill-rule="evenodd" class="AnRectangle" height="40px"/>

  
  <text x="0px" font-size="8" y="8px" transform="matrix(4.000000,0.000000,0.000000,4.000000,-8.000000,-17.600000)" text-decoration="none" fill="#0000FF" font-family="Arial" class="AnText" font-style="normal" font-weight="normal">L</text>

</g></g></g></svg>