<svg contentScriptType="text/ecmascript" xmlns:xlink="http://www.w3.org/1999/xlink" zoomAndPan="magnify" contentStyleType="text/css" preserveAspectRatio="xMidYMid meet" xmlns="http://www.w3.org/2000/svg" version="1.0"><g id="ECS_EXCC_Remote"><g id="_C1166B_SYMBOLS_ECS_C1166B_ECS_EXCC_1_REMOTE_SVG" transform="translate(-99.0 -99.0)scale(1.0 1.0)"><rect x="25.0" fill="red" width="150.0" height="50.0" y="75.0" opacity="0"/><g id="ECS/C1166B_ECS_EXCC_1_Remote" transform="matrix(1.000000, 0, 0, 1.000000, 100.000000, 100.000000)">

  
  <rect x="-75px" y="-25px" fill="#218A21" width="150px" fill-rule="evenodd" class="AnRectangle" height="50px"/>

  
  <rect x="-75px" y="-25px" fill="none" width="150px" class="AnRectangle" height="50px" stroke="#000000" stroke-width="2px"/>

  
  <text x="0px" font-size="8" y="8px" transform="matrix(4.200000,0.000000,0.000000,4.200000,-59.000000,-21.000000)" text-decoration="none" fill="#FFFFFF" font-family="Arial" class="AnText" font-style="normal" font-weight="normal">Remote </text>

</g></g></g></svg>