<svg contentScriptType="text/ecmascript" xmlns:xlink="http://www.w3.org/1999/xlink" zoomAndPan="magnify" contentStyleType="text/css" preserveAspectRatio="xMidYMid meet" xmlns="http://www.w3.org/2000/svg" version="1.0"><g id="EMO1_Symbol_Undefined"><g id="_C1166B_SYMBOLS_ECT_C1166B_ECT_CMO1_1_UNDEFINED_SVG" transform="translate(-99.0 -99.0)scale(1.0 1.0)"><rect x="50.0" fill="red" width="100.0" height="100.0" y="50.0" opacity="0"/><g id="ECT/C1166B_ECT_CMO1_1_Undefined" transform="matrix(1.000000, 0, 0, 1.000000, 100.000000, 100.000000)">

  
  <rect x="-50px" y="-50px" fill="#989898" width="100px" fill-rule="evenodd" class="AnRectangle" height="100px"/>

  
  <rect x="-50px" y="-50px" fill="none" width="100px" class="AnRectangle" height="100px" stroke="#000000" stroke-width="2px"/>

</g></g></g></svg>