<svg contentScriptType="text/ecmascript" xmlns:xlink="http://www.w3.org/1999/xlink" zoomAndPan="magnify" contentStyleType="text/css" preserveAspectRatio="xMidYMid meet" xmlns="http://www.w3.org/2000/svg" version="1.0"><g id="ESC_GSS__Run_Blink"><g id="_C1166B_SYMBOLS_ESC_C1166B_ESC_GSS__1_RUN_SVG" transform="translate(-99.0 -99.0)scale(1.0 1.0)"><rect x="50.0" fill="red" width="100.0" height="100.0" y="50.0" opacity="0"/><g id="ESC/C1166B_ESC_GSS__1_Run" transform="matrix(1.000000, 0, 0, 1.000000, 100.000000, 100.000000)">

  
  <rect x="-50px" y="-50px" fill="#218A21" width="100px" fill-rule="evenodd" class="AnRectangle" height="100px"/>

  
  <rect x="-50px" y="-50px" fill="none" width="100px" class="AnRectangle" height="100px" stroke="#000000" stroke-width="2px"/>

</g><animate dur="1.0" attributeName="visibility" from="hidden" repeatCount="indefinite" to="visible"/></g></g></svg>