<svg contentScriptType="text/ecmascript" xmlns:xlink="http://www.w3.org/1999/xlink" zoomAndPan="magnify" contentStyleType="text/css" preserveAspectRatio="xMidYMid meet" xmlns="http://www.w3.org/2000/svg" version="1.0"><g id="GASA_Symbol_Undefined"><g id="_C1166B_SYMBOLS_ECT_C1166B_ECT_GASA_1_UNDEFINED_SVG" transform="translate(-99.0 -99.0)scale(1.0 1.0)"><rect x="50.0" fill="red" width="100.0" height="54.0" y="73.0" opacity="0"/><g id="ECT/C1166B_ECT_GASA_1_Undefined" transform="matrix(1.000000, 0, 0, 1.000000, 100.000000, 100.000000)">

  
  <rect x="-50px" y="-27px" fill="#989898" width="100px" fill-rule="evenodd" class="AnRectangle" height="50px"/>

  
  <rect x="-50px" y="-27px" fill="none" width="100px" class="AnRectangle" height="50px" stroke="#000000" stroke-width="2px"/>

  
  <text x="0px" font-size="8" y="8px" transform="matrix(4.725000,0.000000,0.000000,4.725000,-38.000000,-24.000000)" text-decoration="none" fill="#000000" font-family="Arial" class="AnText" font-style="normal" font-weight="normal">GAS</text>

</g></g></g></svg>