<svg contentScriptType="text/ecmascript" xmlns:xlink="http://www.w3.org/1999/xlink" zoomAndPan="magnify" contentStyleType="text/css" preserveAspectRatio="xMidYMid meet" xmlns="http://www.w3.org/2000/svg" version="1.0"><g id="LIFT_Symbol_Fault_Off"><g id="_C1166B_SYMBOLS_LIF_C1166B_LIF_LIFT_5_FAULT_OFF_SVG" transform="translate(-100.0 -100.0)scale(1.0 1.0)"><rect x="40.0" fill="red" width="120.0" height="120.0" y="40.0" opacity="0"/><g id="LIF/C1166B_LIF_LIFT_5_Fault_Off" transform="matrix(1.000000, 0, 0, 1.000000, 100.000000, 100.000000)">

  
  <polygon fill="#FF0000" class="AnPolygon" fill-rule="evenodd" points="-60,-60 -60,59 59,59 59,-60 -60,-60 "/>

  
  <circle fill="#FFFFFF" r="8.00px" cx="-38px" class="AnCircle" fill-rule="evenodd" cy="39px"/>

  
  <circle fill="none" r="8.00px" cx="-38px" class="AnCircle" cy="39px" stroke="#000000" stroke-width="2px"/>

</g></g></g></svg>