<svg contentScriptType="text/ecmascript" xmlns:xlink="http://www.w3.org/1999/xlink" zoomAndPan="magnify" contentStyleType="text/css" preserveAspectRatio="xMidYMid meet" xmlns="http://www.w3.org/2000/svg" version="1.0"><g id="MLC1_State_MO"><g id="_C1166B_SYMBOLS_C1166B_SYMBOLHIGHLIGHT100_3_MO_SVG" transform="translate(-100.0 -100.0)scale(1.0 1.0)"><rect x="0.0" fill="red" width="200.0" height="100.0" y="50.0" opacity="0"/><g id="C1166B_SymbolHighlight100_3_MO" transform="matrix(1.000000, 0, 0, 1.000000, 100.000000, 100.000000)">

  
  <polygon fill="#0000FF" class="AnPolygon" fill-rule="evenodd" points="-100,-50 -91,-50 -91,49 -100,49 "/>

  
  <polygon fill="#0000FF" class="AnPolygon" fill-rule="evenodd" points="-100,-50 99,-50 99,-41 -100,-41 "/>

  
  <polygon fill="#0000FF" class="AnPolygon" fill-rule="evenodd" points="99,49 99,-50 90,-50 90,49 "/>

  
  <polygon fill="#0000FF" class="AnPolygon" fill-rule="evenodd" points="99,49 -100,49 -100,40 99,40 "/>

</g></g></g></svg>