<svg contentScriptType="text/ecmascript" xmlns:xlink="http://www.w3.org/1999/xlink" zoomAndPan="magnify" contentStyleType="text/css" preserveAspectRatio="xMidYMid meet" xmlns="http://www.w3.org/2000/svg" version="1.0"><g id="POT__Symbol_Undefined"><g id="_C1166B_SYMBOLS_ECT_C1166B_ECT_POT__0_UNDEFINED_SVG" transform="translate(-99.0 -99.0)scale(1.0 1.0)"><rect x="25.0" fill="red" width="150.0" height="50.0" y="75.0" opacity="0"/><g id="ECT/C1166B_ECT_POT__0_Undefined" transform="matrix(1.000000, 0, 0, 1.000000, 100.000000, 100.000000)">

  
  <rect x="-75px" y="-25px" fill="#989898" width="150px" fill-rule="evenodd" class="AnRectangle" height="50px"/>

  
  <rect x="-75px" y="-25px" fill="none" width="150px" class="AnRectangle" height="50px" stroke="#000000" stroke-width="2px"/>

</g></g></g></svg>