<svg contentScriptType="text/ecmascript" xmlns:xlink="http://www.w3.org/1999/xlink" zoomAndPan="magnify" contentStyleType="text/css" preserveAspectRatio="xMidYMid meet" xmlns="http://www.w3.org/2000/svg" version="1.0"><g id="SPT__Symbol_Undefined"><g id="_C1166B_SYMBOLS_DRA_C1166B_DRA_SPT__0_UNDEFINED_SVG" transform="translate(-100.0 -100.0)scale(1.0 1.0)"><rect x="37.0" fill="red" width="126.0" height="152.0" y="24.0" opacity="0"/><g id="DRA/C1166B_DRA_SPT__0_Undefined" transform="matrix(1.000000, 0, 0, 1.000000, 100.000000, 100.000000)">

  
  <polyline fill="none" stroke-width="1px" class="AnPolyline" points="-62,57 " stroke="#FFFFFF"/>

  
  <polyline fill="none" stroke-width="2px" class="AnPolyline" points="-62,-75 -62,75 " stroke="#989898"/>

  
  <polyline fill="none" stroke-width="2px" class="AnPolyline" points="61,-75 61,75 " stroke="#989898"/>

  
  <polygon fill="#989898" class="AnPolygon" fill-rule="evenodd" points="-62,57 -47,75 43,75 61,57 61,0 -62,0 -62,57 "/>

  
  <line stroke-dashoffset="0" fill="none" x1="-62px" x2="61px" y1="-60px" y2="-60px" class="AnLine" stroke-dasharray=" 6 8" stroke="#000000" stroke-width="2px"/>

</g></g></g></svg>