<svg contentScriptType="text/ecmascript" xmlns:xlink="http://www.w3.org/1999/xlink" zoomAndPan="magnify" contentStyleType="text/css" preserveAspectRatio="xMidYMid meet" xmlns="http://www.w3.org/2000/svg" version="1.0"><g id="TESA_Symbol_Undefined"><g id="_C1166B_SYMBOLS_ECT_C1166B_ECT_TESA_ALM_1_UNDEFINED_SVG" transform="translate(-99.0 -99.0)scale(1.0 1.0)"><rect x="40.0" fill="red" width="120.0" height="52.0" y="74.0" opacity="0"/><g id="ECT/C1166B_ECT_TESA_ALM_1_Undefined" transform="matrix(1.000000, 0, 0, 1.000000, 100.000000, 100.000000)">

  
  <rect x="-60px" y="-26px" fill="#989898" width="120px" fill-rule="evenodd" class="AnRectangle" height="50px"/>

  
  <rect x="-60px" y="-26px" fill="none" width="120px" class="AnRectangle" height="50px" stroke="#000000" stroke-width="2px"/>

  
  <text x="0px" font-size="8" y="8px" transform="matrix(4.725000,0.000000,0.000000,4.725000,-47.000000,-23.000000)" text-decoration="none" fill="#000000" font-family="Arial" class="AnText" font-style="normal" font-weight="normal">Alarm</text>

</g></g></g></svg>