<svg contentScriptType="text/ecmascript" xmlns:xlink="http://www.w3.org/1999/xlink" zoomAndPan="magnify" contentStyleType="text/css" preserveAspectRatio="xMidYMid meet" xmlns="http://www.w3.org/2000/svg" version="1.0"><g id="TESB_Symbol_Normal_Blink"><g id="_C1166B_SYMBOLS_ECT_C1166B_ECT_TESA_PRE_2_NORMAL_SVG" transform="translate(-99.0 -99.0)scale(1.0 1.0)"><rect x="3.0" fill="red" width="194.0" height="54.0" y="73.0" opacity="0"/><g id="ECT/C1166B_ECT_TESA_PRE_2_Normal" transform="matrix(1.000000, 0, 0, 1.000000, 100.000000, 100.000000)">

  
  <rect x="-97px" y="-27px" fill="#218A21" width="194px" fill-rule="evenodd" class="AnRectangle" height="50px"/>

  
  <rect x="-97px" y="-27px" fill="none" width="194px" class="AnRectangle" height="50px" stroke="#000000" stroke-width="2px"/>

  
  <text x="0px" font-size="8" y="8px" transform="matrix(4.699320,0.000000,0.000000,4.725000,-82.552399,-24.225000)" text-decoration="none" fill="#FFFFFF" font-family="Arial" class="AnText" font-style="normal" font-weight="normal">Pre-Alarm</text>

</g><animate dur="1.0" attributeName="visibility" from="hidden" repeatCount="indefinite" to="visible"/></g></g></svg>