<svg contentScriptType="text/ecmascript" xmlns:xlink="http://www.w3.org/1999/xlink" zoomAndPan="magnify" contentStyleType="text/css" preserveAspectRatio="xMidYMid meet" xmlns="http://www.w3.org/2000/svg" version="1.0"><g id="TTVF_R_Decor_MO"><g id="_C1166B_SYMBOLS_TAG_C1166B_ECT_TAG_3_MANUAL_OVERRIDE_SVG" transform="translate(-35.0 -39.0)scale(1.0 1.0)"><rect x="80.0" fill="red" width="40.0" height="42.0" y="79.0" opacity="0"/><g id="Tag/C1166B_ECT_TAG_3_Manual_Override" transform="matrix(1.000000, 0, 0, 1.000000, 100.000000, 100.000000)">

  
  <rect x="-20px" y="-21px" fill="#989898" width="40px" fill-rule="evenodd" class="AnRectangle" height="40px"/>

  
  <text x="0px" font-size="8" y="8px" transform="matrix(4.000000,0.000000,0.000000,4.000000,-14.400000,-18.600000)" text-decoration="none" fill="#FFFF00" font-family="Arial" class="AnText" font-style="normal" font-weight="normal">M</text>

</g></g></g></svg>