<svg contentScriptType="text/ecmascript" xmlns:xlink="http://www.w3.org/1999/xlink" zoomAndPan="magnify" contentStyleType="text/css" preserveAspectRatio="xMidYMid meet" xmlns="http://www.w3.org/2000/svg" version="1.0"><g id="UPS_UP1S_Alarm"><g id="_C1166B_SYMBOLS_UPS_C1166B_UPS_UP1S_2_ALARM_SVG" transform="translate(-99.0 -100.0)scale(1.0 1.0)"><rect x="50.0" fill="red" width="100.0" height="52.0" y="74.0" opacity="0"/><g id="UPS/C1166B_UPS_UP1S_2_Alarm" transform="matrix(1.000000, 0, 0, 1.000000, 100.000000, 100.000000)">

  
  <rect x="-50px" y="-26px" fill="#FF0000" width="100px" fill-rule="evenodd" class="AnRectangle" height="50px"/>

  
  <rect x="-50px" y="-26px" fill="none" width="100px" class="AnRectangle" height="50px" stroke="#000000" stroke-width="2px"/>

  
  <text x="0px" font-size="8" y="8px" transform="matrix(4.725000,0.000000,0.000000,4.725000,-38.000000,-23.000000)" text-decoration="none" fill="#FFFFFF" font-family="Arial" class="AnText" font-style="normal" font-weight="normal">UPS</text>

</g></g></g></svg>