/* XPM */
static char *vtilewnd_xpm[] = {
/* columns rows colors chars-per-pixel */
"32 32 56 1",
"O c #5180B1",
"> c #90C6E8",
"0 c #5B85B5",
"c c #F5FDFF",
"n c #857840",
"z c #99823B",
"a c #A38738",
"m c #F8FEFF",
"% c #688EBC",
"o c #4D7DAF",
"4 c #D3E5F4",
"r c #6B92BD",
"N c #7F7542",
"  c #4476AA",
"g c #A28838",
"j c #F2FBFF",
"y c #D5F3FF",
"1 c #B7D8EF",
"i c #EBFAFF",
"9 c #5683B3",
"v c #F5FCFF",
": c #84C0E6",
"* c #6F94BF",
"s c #EEFBFF",
"t c #B28F34",
"$ c #638CB9",
"M c #F8FDFF",
"7 c #4D7CAE",
"l c #F1FCFF",
"6 c #4678AB",
"@ c #5A85B5",
"q c #5F89B7",
"= c #68B3E1",
"b c #8E7D3E",
", c #9ECCEA",
"h c #98823B",
"X c #4979AC",
"u c #AC8C35",
"p c #EBF9FF",
"+ c #5682B3",
"< c #ABD2ED",
"5 c #6F93BF",
"; c #78BAE4",
"f c #EEFAFF",
"e c #688FBC",
"8 c #527FB0",
"3 c #CCE2F3",
"- c #6FB6E2",
". c #4677AB",
"d c #EFFBFF",
"# c #5F88B7",
"w c #648CB9",
"x c #8E7C3E",
"2 c #C3DEF1",
"k c #F2FCFF",
"& c #6C91BE",
/* pixels */
" ..XXooOO+@#$%& ..XXooOO+@#$%&&*",
"=--;;::>>,<1234=--;;::>>,<123445",
"=--;;::>>,<1234=--;;::>>,<123445",
"=--;;::>>,<1234=--;;::>>,<123445",
" 66XX778890qwer 66XX778890qwerr5",
"tyyyyyyyyyyyyyytyyyyyyyyyyyyyyyt",
"tyyyyyyyyyyyyyytyyyyyyyyyyyyyyyt",
"tyyyyyyyyyyyyyytyyyyyyyyyyyyyyyt",
"uyyiiiiiiipiiiiuyyiiiiiiipiiiiiu",
"uyyiiiiiiipiiiiuyyiiiiiiipiiiiiu",
"uyyiiiiiiipiiiiuyyiiiiiiipiiiiiu",
"ayysdddssdfdfddayysdddssdfdfdddg",
"ayysdddssdfdfddayysdddssdfdfdddg",
"ayysdddssdfdfddayysdddssdfdfdddg",
"hyyjkkkllkkklkkhyyjkkkllkkklkkkz",
"hyyjkkkllkkklkkhyyjkkkllkkklkkkz",
"hyyjkkkllkkklkkhyyjkkkllkkklkkkz",
"xyycvvvccvvvvvvxyycvvvccvvvvvvvb",
"xyycvvvccvvvvvvxyycvvvccvvvvvvvb",
"xyycvvvccvvvvvvxyycvvvccvvvvvvvb",
"nyymMMMmmMmMMMMnyymMMMmmMmMMMMMn",
"nyymMMMmmMmMMMMnyymMMMmmMmMMMMMn",
"nyymMMMmmMmMMMMnyymMMMmmMmMMMMMn",
"nyymMMMmmMmMMMMnyymMMMmmMmMMMMMn",
"nyymMMMmmMmMMMMnyymMMMmmMmMMMMMn",
"nyymMMMmmMmMMMMnyymMMMmmMmMMMMMn",
"nyymMMMmmMmMMMMnyymMMMmmMmMMMMMn",
"nyymMMMmmMmMMMMnyymMMMmmMmMMMMMn",
"nyymMMMmmMmMMMMnyymMMMmmMmMMMMMn",
"nyymMMMmmMmMMMMnyymMMMmmMmMMMMMn",
"nyymMMMmmMmMMMMnyymMMMmmMmMMMMMn",
"NNNNNNNNNNNNNNNNNNNNNNNNNNNNNNNn"
};
