! XPM2  
15 15 4 1
  c #FFFFFFFFFFFF
. c #C0C0C0C0C0C0
X c #808080808080
o c #000000000000
XXXXXXXXXXXXXX 
X . . . . . .  
X. . . . . . . 
X . . . . . .  
X. . . . o . . 
X . . . oo. .  
X. o . ooo . . 
X .oo ooo . .  
X. ooooo . . . 
X . ooo . . .  
X. . o . . . . 
X . . . . . .  
X. . . . . . . 
X . . . . . .  
              X
