! XPM2  
15 15 3 1
  c #C0C0C0C0C0C0
. c #FFFFFFFFFFFF
X c #808080808080
XXXXXXXXXXXXXX.
X             .
X             .
X             .
X             .
X             .
X             .
X             .
X             .
X             .
X             .
X             .
X             .
X             .
...............
